by\bsuir\ptoop\grphiceditor\program\BufferedDraw$BufferedDrawsSingleton.class
by\bsuir\ptoop\grphiceditor\program\CurrentSettings$CurrentSettingsSingleton.class
by\bsuir\ptoop\grphiceditor\draw\Drawer.class
by\bsuir\ptoop\grphiceditor\figure\Shape.class
by\bsuir\ptoop\grphiceditor\program\WindowHolder.class
by\bsuir\ptoop\grphiceditor\program\plugins\GraphicsConverterHolder$1.class
by\bsuir\ptoop\grphiceditor\program\MoveState.class
by\bsuir\ptoop\grphiceditor\program\plugins\DrawerState.class
by\bsuir\ptoop\grphiceditor\draw\DrawerHolder$DrawerHolderSingleton.class
by\bsuir\ptoop\grphiceditor\figure\ShapeHolder$ShapeHolderSingleton.class
by\bsuir\ptoop\grphiceditor\figure\ShapeHolder$1.class
by\bsuir\ptoop\grphiceditor\spi\LoadService.class
by\bsuir\ptoop\grphiceditor\program\CurrentSettings.class
by\bsuir\ptoop\grphiceditor\draw\DrawerHolder.class
by\bsuir\ptoop\grphiceditor\draw\DrawerHolder$1.class
by\bsuir\ptoop\grphiceditor\program\DrawState.class
by\bsuir\ptoop\grphiceditor\program\plugins\GraphicsConverterHolder$GraphicsConverterHolderSingleton.class
by\bsuir\ptoop\grphiceditor\program\plugins\GraphicsConverterHolder.class
by\bsuir\ptoop\grphiceditor\program\plugins\loader\PluginsLoader.class
by\bsuir\ptoop\grphiceditor\figure\ShapeHolder.class
by\bsuir\ptoop\grphiceditor\program\plugins\GraphicsConverter.class
by\bsuir\ptoop\grphiceditor\program\plugins\Listener.class
by\bsuir\ptoop\grphiceditor\program\BufferedDraw.class
by\bsuir\ptoop\grphiceditor\figure\Dot.class
by\bsuir\ptoop\grphiceditor\GraphicEditor.class
by\bsuir\ptoop\grphiceditor\program\plugins\ShapeModifier.class
by\bsuir\ptoop\grphiceditor\program\BufferedDraw$1.class
by\bsuir\ptoop\grphiceditor\program\CurrentSettings$1.class
by\bsuir\ptoop\grphiceditor\program\plugins\AdditionalSettingsCreator.class
by\bsuir\ptoop\grphiceditor\program\HighlightConverter.class
