by\bsuir\ptoop\graphiceditor\basicdrawer\RhombusDrawer.class
by\bsuir\ptoop\graphiceditor\basicdrawer\TriangleDrawer.class
by\bsuir\ptoop\graphiceditor\basicdrawer\LineDrawer.class
by\bsuir\ptoop\graphiceditor\basicdrawer\PentagonDrawer.class
by\bsuir\ptoop\graphiceditor\basicdrawer\RectangleDrawer.class
by\bsuir\ptoop\graphiceditor\basicdrawer\CircleDrawer.class
