C:\Users\Владислав\Desktop\OOP\BasicDrawerPlugin\src\main\java\by\bsuir\chernik\graphiceditor\basicdrawer\TriangleDrawer.java
C:\Users\Владислав\Desktop\OOP\BasicDrawerPlugin\src\main\java\by\bsuir\chernik\graphiceditor\basicdrawer\PentagonDrawer.java
C:\Users\Владислав\Desktop\OOP\BasicDrawerPlugin\src\main\java\by\bsuir\chernik\graphiceditor\basicdrawer\CircleDrawer.java
C:\Users\Владислав\Desktop\OOP\BasicDrawerPlugin\src\main\java\by\bsuir\chernik\graphiceditor\basicdrawer\RectangleDrawer.java
C:\Users\Владислав\Desktop\OOP\BasicDrawerPlugin\src\main\java\by\bsuir\chernik\graphiceditor\basicdrawer\LineDrawer.java
C:\Users\Владислав\Desktop\OOP\BasicDrawerPlugin\src\main\java\by\bsuir\chernik\graphiceditor\basicdrawer\RhombusDrawer.java
